{
  "translationApi": "google",
  "deeplPlan": "deeplFree",
  "deeplAuthKey": "",
  "targetLang": "pt",
  "secondTargetLang": "en",
  "ifShowCandidate": true,
  "whenSelectText": "showPanel",
  "ifCheckLang": true,
  "ifOnlyTranslateWhenModifierKeyPressed": true,
  "modifierKey": "ctrl",
  "ifChangeSecondLangOnPage": true,
  "isDisabledInTextFields": false,
  "isDisabledInCodeElement": true,
  "ignoredDocumentLang": "",
  "disableUrlList": "",
  "waitTime": 500,
  "ifChangeSecondLang": true,
  "ifShowMenu": true,
  "theme": "light",
  "buttonSize": 22,
  "buttonDirection": "bottomRight",
  "buttonOffset": 10,
  "width": 300,
  "height": 200,
  "fontSize": "16",
  "panelReferencePoint": "bottomSelectedText",
  "panelDirection": "bottom",
  "panelOffset": 10,
  "resultFontColor": "#000000",
  "candidateFontColor": "#000000",
  "bgColor": "#ffc900",
  "isShowOptionsPageWhenUpdated": true,
  "isDebugMode": false
}