{
  "table": {
    "prefix": "table",
    "description": "draw a table",
    "body": [
      "# tip: use gr on vim to add content on cells",
      " ┌─────────────┬──────────────────────┬────────────────────────────────┐",
      " │             │                      │                                │",
      " ├─────────────┼──────────────────────┼────────────────────────────────┤",
      " │             │                      │                                │",
      " │             │                      │                                │",
      " │             │                      │                                │",
      " │             │                      │                                │",
      " └─────────────┴──────────────────────┴────────────────────────────────┘"
    ]
  },
  "modeline": {
    "prefix": "modeline",
    "description": "modeline para markdown",
    "body": "# vim:ft=markdown:et:sw=4:ts=4:cole=0:"
  },
  "code": {
      "prefix": "code",
      "description": "block of code",
      "body": [
          "```${1:markdown}",
          "${2:${TM_SELECTED_TEXT:body}}",
          "```",
          "${0}"
      ]
  },
  "ccode": {
      "prefix": "ccode",
      "description": "clipboard as codeblack",
      "body": [
          "```${1:markdown}",
          "${2:${CLIPBOARD}}",
          "```",
          "${0}"
      ]
  },
  "inline-code": {
      "prefix": "icode",
      "description": "inline block of code",
      "body": "`${1:${TM_SELECTED_TEXT}}` $0"
  },
  "header 2": {
      "prefix": "h2",
      "description": "Add header level 2",
      "body": ["## ${0:${TM_SELECTED_TEXT}}"]
  },
  "header 3": {
      "prefix": "h3",
      "description": "Add header level 2",
      "body": ["### ${0:${TM_SELECTED_TEXT}}"]
  },
  "Links": {
    "prefix": ["l", "link"],
    "body": ["[${1}](${2}) ${0}"],
    "description": "Add links"
  }
}
