{
  "table": {
    "prefix": "table",
    "description": "draw a table",
    "body": [
      "# tip: use gr on vim to add content on cells",
      " ┌─────────────┬──────────────────────┬────────────────────────────────┐",
      " │             │                      │                                │",
      " ├─────────────┼──────────────────────┼────────────────────────────────┤",
      " │             │                      │                                │",
      " │             │                      │                                │",
      " │             │                      │                                │",
      " │             │                      │                                │",
      " └─────────────┴──────────────────────┴────────────────────────────────┘"
    ]
  },
  "box": {
    "prefix": "box",
    "description": "Insert a box",
    "body": [
      " ┌────────────────┐",
      " │                │",
      " └────────────────┘"
    ]
  }
}
