{
  "au": {
    "prefix": "au",
    "description": "augroup",
    "body": [
      "augroup ${1:name}",
      "    au!",
      "    ${2:content}",
      "augroup END"
    ]
  },
  "try": {
    "prefix": "try",
    "description": "try/finally/endtry",
    "body": [
      "try",
      "    ${1:what try}",
      "finally",
      "    ${2:if so}",
      "endtry"
    ]
  },
  "var": {
    "prefix": "var",
    "description": "define a variable",
    "body": "let ${1:var_name} = ${2:assignments} $0"
  },
  "gvar": {
    "prefix": "gvar",
    "description": "Global / configuration variable",
    "body": [
      "if !exists(\"g:${1:MyUltraImportantVar}\")",
      "\tlet g:$1 = ${2:\"${3:<tab>}\"}",
      "endif"
    ]
  },
  "if": {
    "prefix": "if",
    "description": "conditional test",
    "body": [
      "if ${1:test}",
      "    ${2:options}",
      "endif",
      "${0:\"}"
    ]
  },
  "'ex'": {
    "prefix": "'ex'",
    "description": "test if something exists",
    "body": [
      "if ${1:!}exists(\"${2:condition}\")",
      "    ${3:statements}",
      "endif",
      "$0"
    ]
  },
  "com": {
    "prefix": "com",
    "description": "new command",
    "body": "command! -nargs=${1:number_of_args} ${2:other_params} ${2:name} ${2:command}"
  },
  "modeline": {
    "prefix": "modeline",
    "description": "Insert modeline",
    "body": "\" vim:set noet sts=0 sw=4 ts=4 tw=78:"
  },
  "gnu": {
    "prefix": "gnu",
    "description": "gnu licence",
    "body": [
      "\" This program is free software: you can redistribute it and/or modify",
      "\" it under the terms of the GNU General Public License as published by",
      "\" the Free Software Foundation, either version 3 of the License, or",
      "\" (at your option) any later version.",
      "\"",
      "\" This program is distributed in the hope that it will be useful,",
      "\" but WITHOUT ANY WARRANTY; without even the implied warranty of",
      "\" MERCHANTABILITY or FITNESS FOR A PARTICULAR PURPOSE.  See the",
      "\" GNU General Public License for more details.",
      "\"",
      "\" You should have received a copy of the GNU General Public License",
      "\" along with this program.  If not, see <http://www.gnu.org/licenses/>.",
      "$0"
    ]
  }
}
